{
  "metadata": {
    "name": "[EN] MangaJar",
    "author": "Admin",
    "version": 2,
    "source": "https://qmanga.com",
    "regexp": "(qmanga).(com)",
    "description": "Comic of MangaJar",
    "locale": "en_US",
    "language": "javascript",
    "type": "comic",
    "search": false,
    "genre": false
  },
  "script": {
    "tabs": "src/tabs.js",
    "home": "src/home.js",
    "detail": "src/detail.js",
    "chapters": "src/chapters.js",
    "chapter": "src/chapter.js"
  }
}
